{
  "id": "backstop_default",
  "viewports": [
    {
      "label": "comp",
      "width": 1024,
      "height": 768
    }
  ],
  "onBeforeScript": "puppet/onBefore.js",
  "onReadyScript": "puppet/onReady.js",
  "scenarios": [
    {
      "label": "scenario 1",
      "url": "./index.html",
      "referenceUrl" : "file://homework1.2/index.html",
      "delay": 0,
      "selectors": [ "body", ".form-container", ".login-form"],
        "readyEvent": null,
      "delay": 500,
      "onReadyScript": null,
      "onBeforeScript": null
    }
  ],
  "paths": {
    "bitmaps_reference": "backstop_data/bitmaps_reference",
    "bitmaps_test": "backstop_data/bitmaps_test",
    "engine_scripts": "backstop_data/engine_scripts",
    "html_report": "backstop_data/html_report"
  },
  "report": ["browser"],
  "engine": "puppeteer",
  "engineOptions": {
    "args": ["--no-sandbox"]
  },
  "asyncCaptureLimit": 5,
  "asyncCompareLimit": 50,
  "debug": false,
  "debugWindow": false
}
